<?xml version="1.0" encoding="UTF-8" standalone="no"?>
<svg
	xmlns="http://www.w3.org/2000/svg"
	version="1.1"
	width="40"
	height="40"
	viewBox="0 0 40 40">
	<style type="text/css"> <![CDATA[
		#Fleche{
			fill:none;
			stroke-width:3px;
			stroke: #6d7d89;
		}
	]]> </style>
	<path id="Fleche" d="M 20 5 V 35 L 10 25" />
</svg>