<?xml version="1.0" encoding="UTF-8" standalone="no"?>
<svg
	xmlns="http://www.w3.org/2000/svg"
	xmlns:xlink="http://www.w3.org/1999/xlink"
	id="LogoTramT7"
	version="1.1"
	width="64"
	height="64"
	viewBox="0 0 256 256">
	
	<rect fill="#773b9f"
		x="16" y="16" width="224" height="224" />
	<text x="134" y="213"
		text-anchor="middle" fill="white"
		style="font-family:'Overpass',sans-serif; font-weight:bold; font-size:230px;">7</text>
</svg>
