<?xml version="1.0" encoding="UTF-8" standalone="no"?>
<svg
	xmlns="http://www.w3.org/2000/svg"
	xmlns:xlink="http://www.w3.org/1999/xlink"
	id="LogoC21"
	version="1.1"
	width="96"
	height="64"
	viewBox="0 0 384 256">
	
	<rect fill="#6d7d89"
		x="16" y="16" width="360" height="224" />
	<text x="196" y="213"
		text-anchor="middle" fill="white"
		style="font-family:'Overpass',sans-serif; font-weight:bold; font-size:230px;">21</text>
</svg>
