<?xml version="1.0" encoding="UTF-8" standalone="no"?>
<svg
	xmlns="http://www.w3.org/2000/svg"
	version="1.1"
	id="Terminus_BusRenforce_xM"
	width="48"
	height="32"
	viewBox="0 0 48 32">
	<style type="text/css"> <![CDATA[
		.bg{
			fill:#ffffff;
			stroke-width:2;
			stroke:#000000;
		}
	]]> </style>
	
	<rect x="2" y="2" width="44" height="28" rx="14" ry="14" class="bg" />
	<circle id="BusRenforce"	r="4" cx="12" cy="16" fill="#6d7d89" />
</svg>