<?xml version="1.0" encoding="UTF-8" standalone="no"?>
<svg
	xmlns="http://www.w3.org/2000/svg"
	version="1.1"
	id="Station_M_x"
	width="48"
	height="32"
	viewBox="0 0 48 32">
	<style type="text/css"> <![CDATA[
		.bg{
			fill:#ffffff;
			stroke-width:2;
			stroke:#000000;
		}
	]]> </style>
	
	<rect x="2" y="2" width="36" height="28" rx="13" ry="13" class="bg" />
	<circle r="9" cx="16" cy="16" fill="#1ab14d" />
</svg>