<?xml version="1.0" encoding="UTF-8" standalone="no"?>
<svg
	xmlns="http://www.w3.org/2000/svg"
	version="1.1"
	id="Terminus_T5_x_rot"
	width="48"
	height="32"
	viewBox="0 0 48 32">
	<style type="text/css"> <![CDATA[
		.bg{
			fill:#ffffff;
			stroke-width:2;
			stroke:#000000;
		}
	]]> </style>
	
	<rect x="7" y="7" width="34" height="18" rx="9" ry="9" class="bg" />
	<circle id="TramwayT5"		r="5" cx="16" cy="16" fill="#773b9f" />
</svg>