<?xml version="1.0" encoding="UTF-8" standalone="no"?>
<svg
	xmlns="http://www.w3.org/2000/svg"
	version="1.1"
	id="TerminusT6"
	width="32"
	height="32"
	viewBox="0 0 32 32">
	<style type="text/css"> <![CDATA[
		.bg{
			fill:#ffffff;
			stroke-width:2;
			stroke:#000000;
		}
	]]> </style>
	
	<circle r="9" cx="16" cy="16" class="bg" />
	<circle r="5" cx="16" cy="16" fill="#773b9f" />
</svg>